500 71
1 2
2 19
3 17
4 4
5 18
6 12
7 42
8 56
9 9
10 37
11 50
12 28
13 33
14 2
15 13
16 21
17 45
18 45
19 50
20 48
21 27
22 40
23 54
24 29
25 49
26 22
27 25
28 14
29 48
30 59
31 5
32 32
33 56
34 7
35 1
36 44
37 3
38 27
39 30
40 17
41 11
42 46
43 6
44 35
45 20
46 48
47 9
48 59
49 48
50 33
51 20
52 25
53 43
54 6
55 55
56 64
57 46
58 42
59 56
60 31
61 26
62 41
63 55
64 51
65 3
66 8
67 31
68 63
69 53
70 20
71 4
72 38
73 62
74 28
75 64
76 18
77 60
78 17
79 70
80 33
81 19
82 35
83 53
84 16
85 13
86 4
87 20
88 65
89 36
90 2
91 12
92 12
93 51
94 64
95 65
96 28
97 16
98 44
99 19
100 24
101 29
102 1
103 33
104 58
105 24
106 10
107 33
108 60
109 50
110 54
111 1
112 28
113 8
114 23
115 52
116 29
117 42
118 36
119 43
120 18
121 47
122 59
123 15
124 36
125 30
126 38
127 58
128 38
129 37
130 29
131 58
132 6
133 21
134 42
135 8
136 4
137 61
138 8
139 18
140 56
141 9
142 14
143 24
144 31
145 65
146 20
147 31
148 62
149 31
150 47
151 2
152 35
153 7
154 55
155 49
156 5
157 50
158 7
159 14
160 19
161 8
162 51
163 50
164 67
165 40
166 60
167 13
168 59
169 45
170 6
171 45
172 41
173 3
174 16
175 49
176 52
177 20
178 27
179 32
180 4
181 64
182 23
183 5
184 13
185 21
186 40
187 32
188 31
189 58
190 67
191 9
192 9
193 23
194 22
195 11
196 66
197 44
198 39
199 34
200 26
201 1
202 54
203 25
204 24
205 45
206 53
207 6
208 26
209 28
210 45
211 46
212 7
213 25
214 27
215 43
216 21
217 16
218 69
219 12
220 63
221 3
222 21
223 61
224 29
225 30
226 60
227 39
228 5
229 37
230 13
231 44
232 7
233 68
234 11
235 10
236 13
237 58
238 1
239 43
240 47
241 20
242 71
243 23
244 23
245 34
246 17
247 11
248 6
249 21
250 61
251 5
252 57
253 36
254 22
255 21
256 10
257 19
258 48
259 12
260 66
261 25
262 46
263 33
264 66
265 24
266 37
267 12
268 52
269 18
270 30
271 37
272 47
273 35
274 10
275 18
276 62
277 55
278 16
279 63
280 34
281 47
282 34
283 28
284 10
285 53
286 45
287 40
288 3
289 30
290 54
291 60
292 32
293 42
294 59
295 54
296 28
297 14
298 15
299 49
300 54
301 7
302 4
303 38
304 32
305 69
306 55
307 43
308 36
309 62
310 44
311 39
312 38
313 35
314 47
315 16
316 24
317 34
318 35
319 65
320 67
321 56
322 37
323 10
324 10
325 68
326 1
327 49
328 11
329 8
330 26
331 55
332 41
333 41
334 63
335 48
336 5
337 26
338 39
339 49
340 15
341 61
342 26
343 42
344 6
345 40
346 33
347 35
348 48
349 27
350 19
351 63
352 51
353 15
354 16
355 9
356 12
357 62
358 40
359 17
360 25
361 65
362 22
363 3
364 26
365 36
366 61
367 10
368 19
369 57
370 17
371 29
372 55
373 51
374 9
375 13
376 21
377 6
378 28
379 24
380 52
381 47
382 39
383 69
384 15
385 55
386 17
387 68
388 39
389 48
390 19
391 39
392 69
393 49
394 38
395 57
396 66
397 22
398 53
399 51
400 1
401 32
402 40
403 47
404 52
405 56
406 43
407 42
408 32
409 11
410 3
411 31
412 44
413 62
414 18
415 57
416 41
417 12
418 43
419 11
420 14
421 7
422 33
423 32
424 31
425 37
426 64
427 2
428 15
429 2
430 9
431 41
432 35
433 23
434 46
435 8
436 15
437 23
438 22
439 50
440 1
441 7
442 3
443 58
444 54
445 27
446 41
447 47
448 22
449 44
450 42
451 25
452 56
453 63
454 24
455 2
456 41
457 36
458 34
459 24
460 57
461 51
462 31
463 30
464 59
465 22
466 21
467 14
468 16
469 18
470 2
471 3
472 14
473 35
474 28
475 26
476 13
477 53
478 46
479 38
480 11
481 12
482 67
483 17
484 16
485 64
486 38
487 34
488 27
489 4
490 66
491 30
492 35
493 27
494 61
495 20
496 29
497 62
498 57
499 41
500 50
